[
  {
    "_id":"assess1",
    "assessmentName":"Class test",
    "weight":"0.5",
    "topicsCovered":["Java","arithmetic"],
    "assessmentType":"CLASSTEST"
  },
  {
    "_id":"assess2",
    "assessmentName":"Project Math Quiz App",
    "weight":"0.5",
    "topicsCovered":["Java","Array"],
    "assessmentType":"LAB"
  },
  {
    "_id":"assess3",
    "assessmentName":"Raspberry Pi",
    "weight":"0.4",
    "topicsCovered":["Pi","Written"],
    "assessmentType":"CLASSTEST"
  },
  {
    "_id":"assess4",
    "assessmentName":"Cisco Network class test",
    "weight":"0.3",
    "topicsCovered":["Cisco","Netop"],
    "assessmentType":"CLASSTEST"
  },
  {
    "_id":"assess5",
    "assessmentName":"Math Quiz",
    "weight":0.6,
    "topicsCovered":["Algebra"],
    "assessmentType":"PROJECT"
  },
  {
    "_id":"assess6",
    "assessmentName":"Project Math",
    "weight":0.4,
    "topicsCovered":["Function"],
    "assessmentType":"PROJECT"
  },
  {
    "_id":"assess7",
    "assessmentName":"Data Analytics",
    "weight":1.0,
    "topicsCovered":["SQL","Data"],
    "assessmentType":"PROJECT"
  }
]